{
  "empresa": {
    "title": "Cadastre sua empresa",
    "fieldset": 1,
    "form": [{
      "name": "empresa.nome",
      "title": "Nome completo",
      "required": true,
      "type": {
        "view": "text"
      },
      "gridstyle": "col-md-6",
      "placeholder": "Seu nome completo aqui",
      "maxlength": "80",
      "validation": "validate[required]"
    }, {
      "name": "empresa.telefone",
      "title": "Telefone",
      "required": true,
      "type": {
        "view": "text"
      },
      "gridstyle": "col-md-6",
      "placeholder": "DDD + Telefone",
      "maxlength": "16",
      "validation": "validate[required] br_celphone"
    }, {
      "name": "empresa.email",
      "title": "E-mail",
      "required": true,
      "type": {
        "view": "text"
      },
      "gridstyle": "col-md-6",
      "placeholder": "E-mail para contato",
      "maxlength": "128",
      "validation": "validate[required, custom[email]]"
    }, {
      "name": "empresa.site",
      "title": "Página na internet",
      "required": false,
      "type": {
        "view": "text"
      },
      "gridstyle": "col-md-6",
      "placeholder": "Site, blog ou portal",
      "maxlength": "255"
    }, {
      "name": "empresa.endereco.cep",
      "title": "CEP",
      "required": true,
      "type": {
        "view": "text"
      },
      "gridstyle": "col-md-4",
      "placeholder": "Digite seu CEP",
      "maxlength": "10",
      "ngchange": "getCEP('empresa.endereco', 'empresa.endereco.numero')",
      "validation": "cep validate[required]"

    }, {
      "name": "empresa.endereco.endereco",
      "title": "Logradouro",
      "required": true,
      "type": {
        "view": "text"
      },
      "gridstyle": "col-md-8",
      "placeholder": "Endereço completo",
      "maxlength": "255",
      "validation": "validate[required]"

    }, {
      "name": "empresa.endereco.numero",
      "title": "Número",
      "type": {
        "view": "text"
      },
      "gridstyle": "col-md-4",
      "placeholder": "Número da residência",
      "maxlength": "8",
      "validation": "number"

    }, {
      "name": "empresa.endereco.complemento",
      "title": "Complemento",
      "type": {
        "view": "text"
      },
      "gridstyle": "col-md-4",
      "placeholder": "Complemento da residência",
      "maxlength": "40"

    }, {
      "name": "empresa.endereco.bairro",
      "title": "Bairro",
      "required": true,
      "type": {
        "view": "text"
      },
      "gridstyle": "col-md-4",
      "placeholder": "Bairro ou distrito",
      "maxlength": "80",
      "validation": "validate[required]"
    }, {
      "name": "empresa.endereco.cidade",
      "title": "Cidade",
      "required": true,
      "type": {
        "view": "text"
      },
      "gridstyle": "col-md-4",
      "placeholder": "Cidade ou província",
      "maxlength": "80",
      "validation": "validate[required]"
    }, {
      "name": "empresa.endereco.estado",
      "title": "Estado",
      "required": true,
      "type": {
        "view": "text"
      },
      "gridstyle": "col-md-4",
      "placeholder": "Sigla do estado",
      "maxlength": "2",
      "validation": "validate[required]"
    }, {
      "name": "empresa.endereco.pais",
      "title": "País",
      "required": true,
      "type": {
        "view": "text"
      },
      "gridstyle": "col-md-4",
      "placeholder": "País",
      "maxlength": "40",
      "validation": "validate[required]"
    }, {
      "name": "empresa.dataFundacao",
      "title": "Data de fundação",
      "required": true,
      "type": {
        "view": "text"
      },
      "gridstyle": "col-md-6",
      "placeholder": "DD/MM/AAAA",
      "maxlength": "10",
      "validation": "date validate[required, custom[date]]"
    }, {
      "name": "empresa.localAtuacao",
      "title": "Sua empresa atua",
      "required": true,
      "type": {
        "view": "select",
        "options": [{
          "value": "MUNICIPIO",
          "title": "Apenas no município"
        }, {
          "value": "ESTADO",
          "title": "Apenas no estado"
        }, {
          "value": "REGIAO",
          "title": "Apenas na região"
        }, {
          "value": "PAIS",
          "title": "Apenas no país"
        }, {
          "value": "MUNDO",
          "title": "Mundo"
        }]
      },
      "gridstyle": "col-md-6",
      "placeholder": "Selecione uma opção",
      "validation": "validate[required]"
    }, {
      "name": "empresa.descricao",
      "title": "Faça uma breve descrição da sua empresa",
      "required": true,
      "type": {
        "view": "textarea"
      },
      "gridstyle": "col-md-12",
      "placeholder": "Digite a descrição aqui",
      "validation": "validate[required]"
    }, {
      "name": "empresa.vendeuParaGoverno",
      "title": "Já vendeu p/ setor público",
      "required": true,
      "type": {
        "view": "radio",
        "options": [{
          "value": true,
          "title": "Sim"
        }, {
          "value": false,
          "title": "Não"
        }]
      },
      "gridstyle": "col-md-6",
      "class": "",
      "validation": "validate[required]"
    }, {
      "name": "empresa.funcionariosTempoIntegral",
      "title": "Quantas pessoas trabalham em tempo integral?",
      "required": true,
      "type": {
        "view": "text"
      },
      "gridstyle": "col-md-6",
      "placeholder": "Apenas números",
      "maxlength": "5",
      "validation": "validate[required] number"

    }, {
      "name": "empresa.aceleracaoOuIncubadora",
      "title": "Já passou por incubadora ou aceleração?",
      "required": true,
      "type": {
        "view": "radio",
        "options": [{
          "value": true,
          "title": "Sim"
        }, {
          "value": false,
          "title": "Não"
        }]
      },
      "gridstyle": "col-md-6"

    }, {
      "name": "empresa.nomeAceleradora",
      "title": "Qual incubadora/aceleradora?",
      "required": true,
      "type": {
        "view": "text"
      },
      "gridstyle": "col-md-6",
      "placeholder": "Digite o nome da incubadora ou aceleradora",
      "class": "",
      "maxlength": "40",
      "ngif": "empresa.aceleracaoOuIncubadora",
      "validation": "validate[required]"
    }, {
      "name": "empresa.buscaInvestimento",
      "title": "Já recebeu investimento?",
      "required": true,
      "type": {
        "view": "radio",
        "options": [{
          "value": true,
          "title": "Sim"
        }, {
          "value": false,
          "title": "Não"
        }]
      },
      "gridstyle": "col-md-4"

    }, {
      "name": "empresa.faixaFaturamento",
      "title": "Valor do investimento",
      "required": true,
      "type": {
        "view": "text"
      },
      "gridstyle": "col-md-4",
      "placeholder": "Valor em reais",
      "maxlength": "40",
      "ngif": "empresa.buscaInvestimento",
      "validation": "validate[required] money2"
    }, {
      "name": "empresa.tipoInvestimento",
      "title": "Tipo de investimento",
      "required": true,
      "type": {
        "view": "text"
      },
      "gridstyle": "col-md-4",
      "placeholder": "Ex.: Pessoal ou Empresarial",
      "maxlength": "40",
      "ngif": "empresa.buscaInvestimento",
      "validation": "validate[required]"
    }, {
      "type": {
        "view": "custom",
        "component": "principaisClientes"
      },
      "gridstyle": "col-md-12",
      "class": "form-principais-clientes",
      "hidelabel": "true",
      "validation": "validate[required]"
    }]
  },
  "empreendedor": {
    "title": "Cadastre os empreendedores",
    "fieldset": 2,
    "form": [{
        "type": {
          "view": "custom",
          "component": "listaEmpreendedores"
        },
        "gridstyle": "col-md-12",
        "class": "form-classifica-produto",
        "hidelabel": true,
        "validation": "validate[required]"

      }, {
        "type": {
          "view": "divider"
        },
        "gridstyle": "col-md-12",
        "hidelabel": "true",
        "class": "form-divider",
        "validation": "novalidate",
        "ngif": "empreendedor.toggleListInsert"

      }, {
        "name": "empreendedor.nome",
        "title": "Nome",
        "required": true,
        "type": {
          "view": "text"
        },
        "gridstyle": "col-md-6",
        "placeholder": "Seu nome aqui (Sobrenome no próximo campo)",
        "maxlength": "40",
        "validation": "validate[required]",
        "ngif": "empreendedor.toggleListInsert"

      }, {
        "name": "empreendedor.sobrenome",
        "title": "Sobrenome",
        "required": true,
        "type": {
          "view": "text"
        },
        "gridstyle": "col-md-6",
        "placeholder": "Seu sobrenome aqui",
        "maxlength": "40",
        "validation": "validate[required]",
        "ngif": "empreendedor.toggleListInsert"

      }, {
        "name": "empreendedor.cargoAtual",
        "title": "Cargo atual",
        "required": true,
        "type": {
          "view": "text"
        },
        "gridstyle": "col-md-6",
        "placeholder": "Seu cargo aqui",
        "maxlength": "40",
        "validation": "validate[required]",
        "ngif": "empreendedor.toggleListInsert"

      }, {
        "name": "empreendedor.email",
        "title": "E-mail",
        "required": true,
        "type": {
          "view": "text"
        },
        "gridstyle": "col-md-6",
        "placeholder": "Seu e-mail aqui",
        "maxlength": "40",
        "validation": "validate[required, custom[email]]",
        "ngif": "empreendedor.toggleListInsert"

      }, {
        "name": "empreendedor.telefone",
        "title": "Telefone",
        "required": true,
        "type": {
          "view": "text"
        },
        "gridstyle": "col-md-6",
        "placeholder": "Seu telefone aqui",
        "maxlength": "40",
        "ngif": "empreendedor.toggleListInsert",
        "validation": "validate[required] br_celphone"

      }, {
        "name": "empreendedor.site",
        "title": "Página na internet",
        "required": true,
        "type": {
          "view": "text"
        },
        "gridstyle": "col-md-6",
        "placeholder": "Site, blog ou portal",
        "class": "",
        "mask": "",
        "maskrepeat": "40",
        "maxlength": "40",
        "validation": "validate[required]",
        "ngif": "empreendedor.toggleListInsert"

      }, {
        "name": "empreendedor.areaAtuacao",
        "title": "Área de atuação",
        "required": true,
        "type": {
          "view": "text"
        },
        "gridstyle": "col-md-6",
        "placeholder": "Área de atuação",
        "maxlength": "40",
        "validation": "validate[required]",
        "ngif": "empreendedor.toggleListInsert"

      }, {
        "name": "empreendedor.formacao",
        "title": "Formação",
        "required": true,
        "type": {
          "view": "text"
        },
        "gridstyle": "col-md-6",
        "placeholder": "Sua formação aqui",
        "maxlength": "40",
        "validation": "validate[required]",
        "ngif": "empreendedor.toggleListInsert"

      }, {
        "name": "empreendedor.motivacaoEmpreender",
        "title": "Motivação para empreender",
        "required": true,
        "type": {
          "view": "textarea"
        },
        "gridstyle": "col-md-12",
        "placeholder": "Digite a descrição aqui",
        "validation": "validate[required]",
        "ngif": "empreendedor.toggleListInsert"

      }, {
        "name": "empreendedor.endereco.cep",
        "title": "CEP",
        "required": true,
        "type": {
          "view": "text"
        },
        "gridstyle": "col-md-4",
        "placeholder": "Digite seu CEP",
        "maxlength": "10",
        "ngchange": "getCEP('empreendedor.endereco', 'empreendedor.endereco.numero')",
        "validation": "cep validate[required]",
        "ngif": "empreendedor.toggleListInsert"
      }, {
        "name": "empreendedor.endereco.endereco",
        "title": "Logradouro",
        "required": true,
        "type": {
          "view": "text"
        },
        "gridstyle": "col-md-8",
        "placeholder": "Endereço completo",
        "maxlength": "255",
        "ngif": "empreendedor.toggleListInsert",
        "validation": "validate[required]"
      }, {
        "name": "empreendedor.endereco.numero",
        "title": "Número",
        "type": {
          "view": "text"
        },
        "gridstyle": "col-md-4",
        "placeholder": "Número da residência",
        "maxlength": "8",
        "ngif": "empreendedor.toggleListInsert"

      }, {
        "name": "empreendedor.endereco.complemento",
        "title": "Complemento",
        "type": {
          "view": "text"
        },
        "gridstyle": "col-md-4",
        "placeholder": "Complemento da residência",
        "maxlength": "40",
        "ngif": "empreendedor.toggleListInsert"

      }, {
        "name": "empreendedor.endereco.bairro",
        "title": "Bairro",
        "required": true,
        "type": {
          "view": "text"
        },
        "gridstyle": "col-md-4",
        "placeholder": "Bairro ou distrito",
        "maxlength": "80",
        "ngif": "empreendedor.toggleListInsert",
        "validation": "validate[required]"

      }, {
        "name": "empreendedor.endereco.cidade",
        "title": "Cidade",
        "required": true,
        "type": {
          "view": "text"
        },
        "gridstyle": "col-md-4",
        "placeholder": "Cidade ou província",
        "maxlength": "80",
        "ngif": "empreendedor.toggleListInsert",
        "validation": "validate[required]"

      }, {
        "name": "empreendedor.endereco.estado",
        "title": "Estado",
        "required": true,
        "type": {
          "view": "text"
        },
        "gridstyle": "col-md-4",
        "placeholder": "Sigla do estado",
        "maxlength": "2",
        "ngif": "empreendedor.toggleListInsert",
        "validation": "validate[required]"

      }, {
        "name": "empreendedor.endereco.pais",
        "title": "País",
        "required": true,
        "type": {
          "view": "text"
        },
        "gridstyle": "col-md-4",
        "placeholder": "País",
        "maxlength": "40",
        "ngif": "empreendedor.toggleListInsert",
        "validation": "validate[required]"

      }, {
        "name": "empreendedor.miniBiografia",
        "title": "Mini biografia",
        "required": true,
        "type": {
          "view": "textarea"
        },
        "gridstyle": "col-md-12",
        "placeholder": "Digite a descrição aqui",
        "ngif": "empreendedor.toggleListInsert",
        "validation": "validate[required]"

      }, {
        "title": "Adicionar",
        "type": {
          "view": "button",
          "class": "btn-success"
        },
        "gridstyle": "col-md-12",
        "click": "cadastrarEmpreendedor",
        "hidelabel": true,
        "class": "text-center",
        "ngif": "empreendedor.toggleListInsert"
      }

    ]
  },
  "produto": {
    "title": "Cadastre seu produto",
    "fieldset": 3,
    "form": [{
        "name": "produto.nome",
        "title": "Nome do Produto",
        "required": true,
        "type": {
          "view": "text"
        },
        "gridstyle": "col-md-12",
        "placeholder": "Qual o nome do seu produto?",
        "validation": "validate[required]"

      }, {
        "name": "produto.site",
        "title": "Endereço Web para acessar o produto",
        "required": true,
        "type": {
          "view": "text"
        },
        "gridstyle": "col-md-12",
        "placeholder": "Endereço do site",
        "validation": "validate[required]"

      }, {
        "name": "produto.resumo",
        "title": "Breve resumo sobre o produto",
        "required": true,
        "type": {
          "view": "textarea"
        },
        "gridstyle": "col-md-12",
        "placeholder": "Digite a descrição aqui",
        "validation": "validate[required]"

      }, {
        "name": "produto.beneficiosAEscola",
        "title": "Benefícios que o produto trás à escola",
        "required": true,
        "type": {
          "view": "textarea"
        },
        "gridstyle": "col-md-12",
        "placeholder": "Digite a descrição aqui",
        "validation": "validate[required]"

      }, {
        "name": "produto.beneficiosAoProfessor",
        "title": "Benefícios que o produto trás ao professor",
        "required": true,
        "type": {
          "view": "textarea"
        },
        "gridstyle": "col-md-12",
        "placeholder": "Digite a descrição aqui",
        "validation": "validate[required]"

      }, {
        "name": "produto.beneficiosAoAluno",
        "title": "Benefícios que o produto trás ao aluno",
        "required": true,
        "type": {
          "view": "textarea"
        },
        "gridstyle": "col-md-12",
        "placeholder": "Digite a descrição aqui",
        "validation": "validate[required]"

      }, {
        "name": "produto.pros",
        "title": "Quais os pontos fortes de seu produto (prós)",
        "required": true,
        "type": {
          "view": "textarea"
        },
        "gridstyle": "col-md-12",
        "placeholder": "Digite a descrição aqui",
        "validation": "validate[required]"

      }, {
        "name": "produto.contras",
        "title": "Quais os pontos fracos de seu produto (contras)",
        "required": true,
        "type": {
          "view": "textarea"
        },
        "gridstyle": "col-md-12",
        "placeholder": "Digite a descrição aqui",
        "validation": "validate[required]"

      }, {
        "type": {
          "view": "divider"
        },
        "gridstyle": "col-md-12",
        "hidelabel": "true",
        "class": "form-divider",
        "validation": "validate[required]"

      }, {
        "type": {
          "view": "title"
        },
        "title": "Classifique seu produto",
        "subtitle": "Busque os termos que melhor identifiquem o produto em nosso banco de classificações. Caso não encontre uma classificação adequada a seu produto, adicione uma nova, nossa equipe irá analisar e enquadrar nos grupos adequados.",
        "gridstyle": "col-md-12",
        "hidelabel": "true",
        "class": "form-inside-title",
        "validation": "validate[required]"

      }, {
        "type": {
          "view": "custom",
          "component": "classificaProduto"
        },
        "gridstyle": "col-md-12",
        "class": "form-classifica-produto",
        "hidelabel": "true"

      }, {
        "name": "produto.principalUsuario",
        "title": "Qual o principal usuário do produto?",
        "required": true,
        "type": {
          "view": "select",
          "options": [{
            "value": "ESTUDANTE",
            "title": "Estudantes"
          }, {
            "value": "PROFESSOR",
            "title": "Professores"
          }, {
            "value": "DIRETOR",
            "title": "Diretores"
          }]
        },
        "gridstyle": "col-md-6",
        "class": "",
        "validation": "validate[required]"

      },

      {
        "type": {
          "view": "custom",
          "component": "caracteristicas"
        },
        "gridstyle": "col-md-12",
        "class": "form-inside-title",
        "hidelabel": "true"

      }, {
        "name": "produto.realizouPiloto",
        "title": "O produto já teve algum piloto realizado?",
        "required": true,
        "type": {
          "view": "radio",
          "options": [{
            "value": true,
            "title": "Sim"
          }, {
            "value": false,
            "title": "Não"
          }]
        },
        "gridstyle": "col-md-6"
      },

      {
        "name": "produto.redePiloto",
        "title": "Em qual rede?",
        "required": true,
        "type": {
          "view": "radio",
          "options": [{
            "value": "PUBLICA",
            "title": "Pública"
          }, {
            "value": "PRIVADA",
            "title": "Privada"
          }]
        },
        "gridstyle": "col-md-6",
        "ngif": "produto.realizouPiloto"
      },

      {
        "name": "produto.quantidadePiloto",
        "title": "Qual tamanho do piloto (n. de usuários)?",
        "required": true,
        "type": {
          "view": "text"
        },
        "gridstyle": "col-md-6",
        "placeholder": "Ex.: 5 ou 500 (Somente números)",
        "maxlength": "40",
        "ngif": "produto.realizouPiloto",
        "validation": "validate[required] number"
      },

      {
        "name": "produto.tempoPiloto",
        "title": "Por quanto tempo (meses) ?",
        "required": true,
        "type": {
          "view": "text"
        },
        "gridstyle": "col-md-6",
        "placeholder": "Ex.: 2 ou 6 (Somente números)",
        "maxlength": "40",
        "ngif": "produto.realizouPiloto",
        "validation": "validate[required] number"
      },

      {
        "name": "produto.clientes",
        "title": "O produto já possui clientes?",
        "required": true,
        "type": {
          "view": "radio",
          "options": [{
            "value": true,
            "title": "Sim"
          }, {
            "value": false,
            "title": "Não"
          }]
        },
        "gridstyle": "col-md-6"
      },

      {
        "name": "produto.paraQuem",
        "title": "Quem compra?",
        "required": true,
        "type": {
          "view": "select",
          "options": [{
            "value": "ESCOLA_PARTICULAR",
            "title": "Escola particular"
          }, {
            "value": "ESCOLA_PUBLICA",
            "title": "Escola pública"
          }]
        },
        "gridstyle": "col-md-6",
        "ngif": "produto.clientes",
        "validation": "validate[required]"
      },

      {
        "name": "produto.quantidadeClientes",
        "title": "Quantos clientes?",
        "required": true,
        "type": {
          "view": "select",
          "options": [{
            "value": "ATE_10",
            "title": "até 10"
          }, {
            "value": "ATE_100",
            "title": "até 100"
          }, {
            "value": "ATE_1000",
            "title": "até 1000"
          }]
        },
        "gridstyle": "col-md-6",
        "ngif": "produto.clientes",
        "validation": "validate[required]"
      },

      {
        "name": "produto.quantidadeUsuarios",
        "title": "Quantos usuários?",
        "required": true,
        "type": {
          "view": "select",
          "options": [{
            "value": "ATE_10",
            "title": "até 10"
          }, {
            "value": "ATE_100",
            "title": "até 100"
          }, {
            "value": "ATE_1000",
            "title": "até 1000"
          }]
        },
        "gridstyle": "col-md-6",
        "ngif": "produto.clientes",
        "validation": "validate[required]"
      },

      {
        "type": {
          "view": "custom",
          "component": "clientesProduto"
        },
        "gridstyle": "col-md-12",
        "class": "form-clientes-produto",
        "hidelabel": "true",
        "ngif": "produto.clientes"
      },

      {
        "type": {
          "view": "custom",
          "component": "estudoDeCaso"
        },
        "gridstyle": "col-md-12",
        "class": "form-upload-caso",
        "hidelabel": "true",
        "validation": "novalidate"
      },

      {
        "type": {
          "view": "custom",
          "component": "uploadImagens"
        },
        "gridstyle": "col-md-12",
        "class": "form-upload-imagens",
        "hidelabel": "true"
      }
    ]
  }
}
